{
	"info": {
		"_postman_id": "b55b0dd8-a304-4c1e-bc8c-8c63c2722ee8",
		"name": "Calculator",
		"schema": "https://schema.getpostman.com/json/collection/v2.1.0/collection.json"
	},
	"item": [
		{
			"name": "Evaluate",
			"request": {
				"method": "GET",
				"header": [],
				"url": {
					"raw": ""
				}
			},
			"response": []
		},
		{
			"name": "Get Logged Calculations",
			"request": {
				"method": "GET",
				"header": [],
				"url": {
					"raw": "http://localhost:60285/calculations",
					"protocol": "http",
					"host": [
						"localhost"
					],
					"port": "60285",
					"path": [
						"calculations"
					]
				}
			},
			"response": []
		}
	],
	"protocolProfileBehavior": {}
}